<Qucs Schematic 0.0.18>
<Properties>
  <View=0,0,965,800,1,0,0>
  <Grid=10,10,1>
  <DataSet=diode.dat>
  <DataDisplay=diode.dpl>
  <OpenDisplay=1>
  <Script=diode.m>
  <RunScript=0>
  <showFrame=0>
  <FrameText0=Title>
  <FrameText1=Drawn By:>
  <FrameText2=Date:>
  <FrameText3=Revision:>
</Properties>
<Symbol>
</Symbol>
<Components>
  <GND * 1 90 320 0 0 0 0>
  <VProbe Pr1 1 490 190 28 -31 0 0>
  <IProbe Pr2 1 590 310 -26 16 0 0>
  <Diode D_1N4148_1 1 490 310 -26 13 0 0 "222p" 1 "1.65" 1 "4p" 0 "0.333" 0 "0.7" 0 "0.5" 0 "0" 0 "0" 0 "2" 0 "68.6m" 0 "5.76n" 0 "0" 0 "0" 0 "1" 0 "1" 0 "75" 0 "1u" 0 "26.85" 0 "3.0" 0 "1.11" 0 "0.0" 0 "0.0" 0 "0.0" 0 "0.0" 0 "0.0" 0 "0.0" 0 "26.85" 0 "1.0" 0 "normal" 0>
  <.TR TR1 1 820 20 0 57 0 0 "lin" 1 "0" 1 "1 ms" 1 "100" 0 "Trapezoidal" 0 "2" 0 "1 ns" 0 "1e-16" 0 "150" 0 "0.001" 0 "1 pA" 0 "1 uV" 0 "26.85" 0 "1e-3" 0 "1e-6" 0 "1" 0 "CroutLU" 0 "no" 0 "yes" 0 "0" 0>
  <R R1 1 320 310 -26 15 0 0 "50 Ohm" 1 "26.85" 0 "0.0" 0 "0.0" 0 "26.85" 0 "US" 0>
  <Vdc V1 1 140 310 -26 -46 0 2 "500 V" 1>
  <GND * 1 680 330 0 0 0 0>
</Components>
<Wires>
  <90 310 90 320 "" 0 0 0 "">
  <90 310 110 310 "" 0 0 0 "">
  <440 210 480 210 "" 0 0 0 "">
  <440 210 440 310 "" 0 0 0 "">
  <500 210 530 210 "" 0 0 0 "">
  <530 310 560 310 "" 0 0 0 "">
  <530 210 530 310 "" 0 0 0 "">
  <520 310 530 310 "" 0 0 0 "">
  <440 310 460 310 "" 0 0 0 "">
  <350 310 440 310 "" 0 0 0 "">
  <170 310 290 310 "" 0 0 0 "">
  <680 310 680 330 "" 0 0 0 "">
  <620 310 680 310 "" 0 0 0 "">
</Wires>
<Diagrams>
</Diagrams>
<Paintings>
</Paintings>
